{
  "title": { "title": "Título", "default": "h1" },
  "paragraph": { "title": "Parágrafo", "default": "div" },
  "card": { "title": "Card", "default": "card" },
  "banners": { "title": "Banners", "default": "banners" },
  "button": { "title": "Botão", "default": "b-button" }
}
