[
  "Apresentação em evento",
  "Artigo de periódico",
  "Áudio",
  "Banco de dados",
  "Capítulo de livro",
  "Folder/cartaz",
  "Imagem",
  "Leis e normas",
  "Livro",
  "Mapa",
  "Material didático/cartilha",
  "Notícia",
  "Página da internet",
  "Patente",
  "Programa de computador/Aplicativo",
  "Relatório",
  "Tese",
  "Texto de trabalho/Rascunho",
  "Vídeo",
  "Outros"
]
